ip_cores/axi_lite_gpio/build/tb_axi_lite_gpio.vcd
$date
	Fri Jun 13 18:43:04 2025
$end
$version
	Icarus Verilog
$end
$timescale
	1ps
$end
$scope module tb_axi_lite_gpio $end
$var wire 1 ! s_axi_wready $end
$var wire 1 " s_axi_rvalid $end
$var wire 2 # s_axi_rresp [1:0] $end
$var wire 32 $ s_axi_rdata [31:0] $end
$var wire 1 % s_axi_bvalid $end
$var wire 2 & s_axi_bresp [1:0] $end
$var wire 1 ' s_axi_awready $end
$var wire 1 ( s_axi_arready $end
$var wire 16 ) gpio_io_t [15:0] $end
$var wire 16 * gpio_io_o [15:0] $end
$var wire 8 + gpio2_io_t [7:0] $end
$var wire 8 , gpio2_io_o [7:0] $end
$var parameter 32 - ADDR_WIDTH $end
$var parameter 4 . CH0_DATA_REG $end
$var parameter 4 / CH0_DIR_REG $end
$var parameter 4 0 CH1_DATA_REG $end
$var parameter 4 1 CH1_DIR_REG $end
$var parameter 32 2 GPIO_WIDTH_CH0 $end
$var parameter 32 3 GPIO_WIDTH_CH1 $end
$var parameter 32 4 NUM_CHANNELS $end
$var reg 1 5 aclk $end
$var reg 1 6 aresetn $end
$var reg 32 7 expected_data [31:0] $end
$var reg 8 8 gpio2_io_i [7:0] $end
$var reg 16 9 gpio_io_i [15:0] $end
$var reg 32 : read_data [31:0] $end
$var reg 4 ; s_axi_araddr [3:0] $end
$var reg 3 < s_axi_arprot [2:0] $end
$var reg 1 = s_axi_arvalid $end
$var reg 4 > s_axi_awaddr [3:0] $end
$var reg 3 ? s_axi_awprot [2:0] $end
$var reg 1 @ s_axi_awvalid $end
$var reg 1 A s_axi_bready $end
$var reg 1 B s_axi_rready $end
$var reg 32 C s_axi_wdata [31:0] $end
$var reg 4 D s_axi_wstrb [3:0] $end
$var reg 1 E s_axi_wvalid $end
$var integer 32 F test_count [31:0] $end
$var integer 32 G test_errors [31:0] $end
$scope module dut $end
$var wire 1 5 aclk $end
$var wire 1 6 aresetn $end
$var wire 8 H gpio2_io_i [7:0] $end
$var wire 16 I gpio_io_i [15:0] $end
$var wire 16 J gpio_io_t [15:0] $end
$var wire 4 K s_axi_araddr [3:0] $end
$var wire 3 L s_axi_arprot [2:0] $end
$var wire 1 ( s_axi_arready $end
$var wire 1 = s_axi_arvalid $end
$var wire 4 M s_axi_awaddr [3:0] $end
$var wire 3 N s_axi_awprot [2:0] $end
$var wire 1 ' s_axi_awready $end
$var wire 1 @ s_axi_awvalid $end
$var wire 1 A s_axi_bready $end
$var wire 2 O s_axi_bresp [1:0] $end
$var wire 1 % s_axi_bvalid $end
$var wire 32 P s_axi_rdata [31:0] $end
$var wire 1 B s_axi_rready $end
$var wire 2 Q s_axi_rresp [1:0] $end
$var wire 1 " s_axi_rvalid $end
$var wire 32 R s_axi_wdata [31:0] $end
$var wire 1 ! s_axi_wready $end
$var wire 4 S s_axi_wstrb [3:0] $end
$var wire 1 E s_axi_wvalid $end
$var wire 16 T gpio_io_o [15:0] $end
$var wire 8 U gpio2_io_t [7:0] $end
$var wire 8 V gpio2_io_o [7:0] $end
$var parameter 32 W ADDR_WIDTH $end
$var parameter 32 X GPIO_WIDTH_CH0 $end
$var parameter 32 Y GPIO_WIDTH_CH1 $end
$var parameter 32 Z NUM_CHANNELS $end
$var reg 1 [ ar_addr_valid $end
$var reg 1 \ aw_data_valid $end
$var reg 4 ] axi_araddr [3:0] $end
$var reg 1 ^ axi_arready $end
$var reg 4 _ axi_awaddr [3:0] $end
$var reg 1 ` axi_awready $end
$var reg 2 a axi_bresp [1:0] $end
$var reg 1 b axi_bvalid $end
$var reg 32 c axi_rdata [31:0] $end
$var reg 2 d axi_rresp [1:0] $end
$var reg 1 e axi_rvalid $end
$var reg 1 f axi_wready $end
$var reg 32 g gpio_data_ch0_reg [31:0] $end
$var reg 32 h gpio_data_ch1_reg [31:0] $end
$var reg 32 i gpio_dir_ch0_reg [31:0] $end
$var reg 32 j gpio_dir_ch1_reg [31:0] $end
$var integer 32 k i [31:0] $end
$scope begin gen_gpio2_channel $end
$upscope $end
$upscope $end
$scope task axi_read $end
$var reg 4 l addr [3:0] $end
$var reg 32 m data [31:0] $end
$upscope $end
$scope task axi_write $end
$var reg 4 n addr [3:0] $end
$var reg 32 o data [31:0] $end
$var reg 4 p strb [3:0] $end
$upscope $end
$scope task check_value $end
$var reg 32 q actual [31:0] $end
$var reg 32 r expected [31:0] $end
$var reg 256 s test_name [255:0] $end
$upscope $end
$upscope $end
$enddefinitions $end
$comment Show the parameter values. $end
$dumpall
b10 Z
b1000 Y
b10000 X
b100 W
b10 4
b1000 3
b10000 2
b1100 1
b1000 0
b100 /
b0 .
b100 -
$end
#0
$dumpvars
bx s
bx r
bx q
bx p
bx o
bx n
bx m
bx l
bx k
bx j
bx i
bx h
bx g
xf
xe
bx d
bx c
xb
bx a
x`
bx _
x^
bx ]
x\
x[
bx V
bx U
bx T
b0 S
b0 R
bx Q
bx P
bx O
b0 N
b0 M
b0 L
b0 K
bx J
b0 I
b0 H
b0 G
b0 F
0E
b0 D
b0 C
0B
0A
0@
b0 ?
b0 >
0=
b0 <
b0 ;
bx :
b0 9
b0 8
bx 7
06
05
bx ,
bx +
bx *
bx )
x(
x'
bx &
x%
bx $
bx #
x"
x!
$end
#5000
b11111111 +
b11111111 U
b1111111111111111 )
b1111111111111111 J
b0 ,
b0 V
b0 *
b0 T
0\
b0 _
0'
0`
0!
0f
b0 j
b0 h
b0 i
b0 g
b0 &
b0 O
b0 a
0%
0b
0[
b0 ]
0(
0^
b0 #
b0 Q
b0 d
0"
0e
b0 $
b0 P
b0 c
15
#10000
05
#15000
15
#20000
05
#25000
15
#30000
05
#35000
15
#40000
05
#45000
15
#50000
05
#55000
15
#60000
05
#65000
15
#70000
05
#75000
15
#80000
05
#85000
15
#90000
05
#95000
15
#100000
05
16
#105000
15
#110000
05
#115000
15
#120000
05
#125000
15
#130000
05
#135000
15
#140000
05
#145000
15
#150000
05
#155000
15
#160000
05
#165000
15
#170000
05
#175000
15
#180000
05
#185000
15
#190000
05
#195000
15
#200000
05
b0 l
#205000
1[
1(
1^
1B
1=
15
#210000
05
#215000
b0 m
1"
1e
0(
0^
b10000 k
0=
15
#220000
05
#225000
b100 l
b1 F
b100001101001000001100000101111101000100010000010101010001000001001000000111001001100101011100110110010101110100001000000111011001100001011011000111010101100101 s
b0 r
b0 q
b0 :
0B
15
#230000
05
#235000
0"
0e
b100 ]
1(
1^
1B
1=
b100 ;
b100 K
15
#240000
05
#245000
0(
0^
1"
1e
0=
15
#250000
05
#255000
b1000 l
b10 F
b1000011010010000011000001011111010001000100100101010010001000000111001001100101011100110110010101110100001000000111011001100001011011000111010101100101 s
0B
15
#260000
05
#265000
b1000 ]
1(
1^
0"
0e
1B
1=
b1000 ;
b1000 K
15
#270000
05
#275000
1"
1e
0(
0^
b1000 k
0=
15
#280000
05
#285000
b1100 l
b11 F
b100001101001000001100010101111101000100010000010101010001000001001000000111001001100101011100110110010101110100001000000111011001100001011011000111010101100101 s
0B
15
#290000
05
#295000
0"
0e
b1100 ]
1(
1^
1B
1=
b1100 ;
b1100 K
15
#300000
05
#305000
0(
0^
1"
1e
0=
15
#310000
05
#315000
b1111 p
b11111111 o
b100 n
b100 F
b1000011010010000011000101011111010001000100100101010010001000000111001001100101011100110110010101110100001000000111011001100001011011000111010101100101 s
0B
15
#320000
05
#325000
1\
b100 _
1'
1`
1!
1f
1A
1E
b1111 D
b1111 S
b11111111 C
b11111111 R
1@
b100 >
b100 M
15
#330000
05
#335000
b1111111100000000 )
b1111111100000000 J
1%
1b
b11111111 i
0!
0f
0'
0`
0E
0@
15
#340000
05
#345000
b10100101 o
b0 n
0A
15
#350000
05
#355000
0%
0b
1!
1f
b0 _
1'
1`
1A
1E
b10100101 C
b10100101 R
1@
b0 >
b0 M
15
#360000
05
#365000
b10100101 *
b10100101 T
0'
0`
0!
0f
b10100101 g
1%
1b
0E
0@
15
#370000
05
#375000
0A
15
#380000
05
#385000
b100 _
1'
1`
1!
1f
0%
0b
1A
1E
b11111111 C
b11111111 R
1@
b100 >
b100 M
15
b11111111 o
b100 n
b110 F
b1000011010010000011000000100000010001110101000001001001010011110010000001110100011100100110100101110011011101000110000101110100011001010010000001100011011011110110111001110100011100100110111101101100 s
b1111111100000000 r
b1111111100000000 q
b1111111100000000 7
#390000
05
#395000
1%
1b
0!
0f
0'
0`
0E
0@
15
#400000
05
#405000
b101101000000000 9
b101101000000000 I
0A
15
#410000
05
#415000
0"
0e
b0 ]
1(
1^
1B
1=
b0 ;
b0 K
15
b0 l
#420000
05
#425000
b101101010100101 m
0(
0^
1"
1e
b101101010100101 $
b101101010100101 P
b101101010100101 c
b10000 k
0=
15
#430000
05
#435000
b1100 n
b111 F
b10000110100100000110000001000000110001101101111011011010110001001101001011011100110010101100100001000000110100101101110011100000111010101110100001011110110111101110101011101000111000001110101011101000010000001110010011001010110000101100100 s
b101101010100101 r
b101101010100101 q
b11111111 7
b101101010100101 :
0B
15
#440000
05
#445000
b1100 _
1'
1`
1!
1f
0%
0b
1A
1E
1@
b1100 >
b1100 M
15
#450000
05
#455000
b0 +
b0 U
1%
1b
b11111111 j
0!
0f
0'
0`
0E
0@
15
#460000
05
#465000
b110011 o
b1000 n
0A
15
#470000
05
#475000
0%
0b
1!
1f
b1000 _
1'
1`
1A
1E
b110011 C
b110011 R
1@
b1000 >
b1000 M
15
#480000
05
#485000
b110011 ,
b110011 V
0'
0`
0!
0f
b110011 h
1%
1b
0E
0@
15
#490000
05
#495000
0A
15
#500000
05
#505000
b1100 _
1'
1`
1!
1f
0%
0b
1A
1E
b0 C
b0 R
1@
b1100 >
b1100 M
15
b0 o
b1100 n
b11111111 8
b11111111 H
b1000 F
b10000110100100000110001001000000100011101010000010010010100111100100000011011110111010101110100011100000111010101110100 s
b110011 r
b110011 q
b110011 7
#510000
05
#515000
b11111111 +
b11111111 U
1%
1b
b0 j
0!
0f
0'
0`
0E
0@
15
#520000
05
#525000
0A
15
#530000
05
#535000
0"
0e
b1000 ]
1(
1^
1B
1=
b1000 ;
b1000 K
15
b1000 l
#540000
05
#545000
b11111111 m
0(
0^
1"
1e
b11111111 $
b11111111 P
b11111111 c
b1000 k
0=
15
#550000
05
#555000
b1 p
b11011110101011011011111011101111 o
b0 n
b1001 F
b1000011010010000011000100100000010001110101000001001001010011110010000001101001011011100111000001110101011101000010000001110010011001010110000101100100 s
b11111111 r
b11111111 q
b11111111 7
b11111111 :
0B
15
#560000
05
#565000
b0 _
1'
1`
1!
1f
0%
0b
1A
1E
b1 D
b1 S
b11011110101011011011111011101111 C
b11011110101011011011111011101111 R
1@
b0 >
b0 M
15
#570000
05
#575000
b11101111 *
b11101111 T
1%
1b
b11101111 g
0!
0f
0'
0`
0E
0@
15
#580000
05
#585000
b0 l
0A
15
#590000
05
#595000
0"
0e
b0 ]
1(
1^
1B
1=
b0 ;
b0 K
15
#600000
05
#605000
b101101011101111 m
0(
0^
1"
1e
b101101011101111 $
b101101011101111 P
b101101011101111 c
b10000 k
0=
15
#610000
05
#615000
b1111 p
b1010101010101010 o
b100 n
b101101011101111 :
0B
15
#620000
05
#625000
b100 _
1'
1`
1!
1f
0%
0b
1A
1E
b1111 D
b1111 S
b1010101010101010 C
b1010101010101010 R
1@
b100 >
b100 M
15
#630000
05
#635000
b101010101010101 )
b101010101010101 J
1%
1b
b1010101010101010 i
0!
0f
0'
0`
0E
0@
15
#640000
05
#645000
b101010101010101 o
b0 n
0A
15
#650000
05
#655000
0%
0b
1!
1f
b0 _
1'
1`
1A
1E
b101010101010101 C
b101010101010101 R
1@
b0 >
b0 M
15
#660000
05
#665000
b101010101010101 *
b101010101010101 T
0'
0`
0!
0f
b101010101010101 g
1%
1b
0E
0@
15
#670000
05
#675000
b1010101010101010 9
b1010101010101010 I
0A
15
#680000
05
#685000
1(
1^
0"
0e
1B
1=
15
#690000
05
#695000
b0 m
b0 $
b0 P
b0 c
1"
1e
0(
0^
b10000 k
0=
15
#700000
05
#705000
b0 :
0B
15
